Listen.moe JPop Vorbis,https://listen.moe/stream,
Wave Anime Radio,https://otsu.s04.radio-tochka.com:5475/mount,
Radio Paradise,http://stream-uk1.radioparadise.com/aac-320,
Classic Vinyl HD,https://walmradio.com:8443/classic,
Радио Русские Песни,https://listen.rusongs.ru/ru-mp3-128,
